Project 1 SDS 348
…
fulldata %>% summarize(mean(state_fp, na.rm=T), sd(state_fp, na.rm = T), var(state_fp, na.rm = T), n(), n_distinct(state_fp), min(state_fp), max(state_fp))

## # A tibble: 1 x 7
##   `mean(state_fp,… `sd(state_fp, n… `var(state_fp, … `n()` `n_distinct(sta…
##              <dbl>            <dbl>            <dbl> <int>            <int>
## 1             25.1             16.8             282.   410               47
## # … with 2 more variables: `min(state_fp)` <int>, `max(state_fp)` <int>

# Summary statistics after grouping by state
fulldata %>% group_by(state) %>% summarize(mean(age, na.rm=T), sd(age, na.rm = T), var(age, na.rm = T), n(), n_distinct(age), min(age), max(age))

## `summarise()` ungrouping output (override with `.groups` argument)

## # A tibble: 47 x 8
##    state `mean(age, na.r… `sd(age, na.rm … `var(age, na.rm… `n()`
##    <chr>            <dbl>            <dbl>            <dbl> <int>
##  1 AK                33               0                  0      2
##  2 AL                44.9            17.6              311.     8
##  3 AR                34               2.65               7      3
##  4 AZ                36.5            11.7              136.    22
##  5 CA                34.9            11.3              128.    69
##  6 CO                35.1            16.6              275.    10
##  7 CT                41              NA                 NA      1
##  8 DC                35              NA                 NA      1
##  9 DE                43.5            12.0              144.     2
## 10 FL                36.3            12.9              166.    23
## # … with 37 more rows, and 3 more variables: `n_distinct(age)` <int>,
## #   `min(age)` <int>, `max(age)` <int>

fulldata %>% group_by(state) %>% summarize(mean(share_black, na.rm=T), sd(share_black, na.rm = T), var(share_black, na.rm = T), n(), n_distinct(share_black), min(share_black), max(share_black))

## `summarise()` ungrouping output (override with `.groups` argument)

## # A tibble: 47 x 8
##    state `mean(share_bla… `sd(share_black… `var(share_blac… `n()`
##    <chr>            <dbl>            <dbl>            <dbl> <int>
##  1 AK               11.4             0.424            0.180     2
##  2 AL               23.0            25.2            634.        8
##  3 AR               23.5            20.1            402.        3
##  4 AZ                4.03            4.22            17.8      22
##  5 CA                7.13           10.5            109.       69
##  6 CO                9.84           14.3            205.       10
##  7 CT                2.1            NA               NA         1
##  8 DC                7.8            NA               NA         1
##  9 DE               35.1            14.8            220.        2
## 10 FL               30.6            31.2            976.       23
## # … with 37 more rows, and 3 more variables: `n_distinct(share_black)` <int>,
## #   `min(share_black)` <dbl>, `max(share_black)` <dbl>

fulldata %>% group_by(state) %>% summarize(mean(state_fp, na.rm=T), sd(state_fp, na.rm = T), var(state_fp, na.rm = T), n(), n_distinct(state_fp), min(state_fp), max(state_fp))

## `summarise()` ungrouping output (override with `.groups` argument)

## # A tibble: 47 x 8
##    state `mean(state_fp,… `sd(state_fp, n… `var(state_fp, … `n()`
##    <chr>            <dbl>            <dbl>            <dbl> <int>
##  1 AK                   2                0                0     2
##  2 AL                   1                0                0     8
##  3 AR                   5                0                0     3
##  4 AZ                   4                0                0    22
##  5 CA                   6                0                0    69
##  6 CO                   8                0                0    10
##  7 CT                   9               NA               NA     1
##  8 DC                  11               NA               NA     1
##  9 DE                  10                0                0     2
## 10 FL                  12                0                0    23
## # … with 37 more rows, and 3 more variables: `n_distinct(state_fp)` <int>,
## #   `min(state_fp)` <int>, `max(state_fp)` <int>

fulldata %>% arrange(gender)

## # A tibble: 410 x 35
##    name    age gender month   day  year streetaddress city  state latitude
##    <chr> <int> <chr>  <chr> <int> <int> <chr>         <chr> <chr>    <dbl>
##  1 Alex…    25 Female April    30  2015 141 Pryor St… Atla… GA        33.8
##  2 Alic…    24 Female March    17  2015 Van Ness Ave… San … CA        37.8
##  3 Autu…    34 Female Janu…     6  2015 104 N Garfie… Burl… IA        40.8
##  4 Bett…    43 Female Febr…    17  2015 2325 Union Rd Gast… NC        35.2
##  5 Crys…    34 Female Febr…    26  2015 5101 Georgia… Moul… GA        31.1
##  6 Dean…    53 Female March    26  2015 400 N Birch   Gard… KS        38.8
##  7 Hue …    64 Female March     9  2015 E Kennedy St  Hack… NJ        40.9
##  8 Jani…    20 Female Febr…    19  2015 Bellefonte Dr Char… NC        35.3
##  9 Jess…    17 Female Janu…    26  2015 Newport St &… Denv… CO        39.8
## 10 Kare…    46 Female April    23  2015 2661 Gravens… Seba… CA        38.4
## # … with 400 more rows, and 25 more variables: longitude <dbl>, state_fp <int>,
## #   county_fp <int>, tract_ce <int>, geo_id <dbl>, county_id <int>,
## #   namelsad <chr>, lawenforcementagency <chr>, cause <chr>, armed <chr>,
## #   pop <int>, share_white.x <dbl>, share_black <dbl>, share_hispanic.x <dbl>,
## #   p_income <int>, h_income <int>, county_income <int>, comp_income <dbl>,
## #   county_bucket <int>, nat_bucket <int>, pov <dbl>, urate <dbl>,
## #   college <dbl>, Race <chr>, relative_black <chr>
…
This plot shows the relationship between the percentage of African Americans in each state where there have been police shootings resulting in death. After expanding the graph, it can be seen that the state with the highest percentage of African Americans is Maryland. In the following plot I will be examining the relationship of the number of deaths per state to see if there is a correlation between the percentage of African Americans in each state and the number of shootings.

Plot 3

fulldata %>% count(state)

## # A tibble: 47 x 2
##    state     n
##    <chr> <int>
##  1 AK        2
##  2 AL        8
##  3 AR        3
##  4 AZ       22
##  5 CA       69
##  6 CO       10
##  7 CT        1
##  8 DC        1
##  9 DE        2
## 10 FL       23
## # … with 37 more rows
…
